{
  "current_page": 1,
  "total_pages": 1000,
  "total_items": 35747,
  "photos":  [
     {
      "id": 159573313,
      "user_id": 1171535,
      "name": "***",
      "description": "Hidden Villa. California. 2016.",
      "camera": "Canon EOS 5D Mark III",
      "lens": "EF85mm f/1.2L II USM",
      "focal_length": "85",
      "iso": "100",
      "shutter_speed": "1/500",
      "aperture": "2.2",
      "times_viewed": 9062,
      "rating": 99.8,
      "status": 1,
      "created_at": "2016-06-20T21:18:33-04:00",
      "category": 7,
      "location": null,
      "latitude": null,
      "longitude": null,
      "taken_at": "2016-06-15T09:34:29-04:00",
      "hi_res_uploaded": 0,
      "for_sale": false,
      "width": 1200,
      "height": 969,
      "votes_count": 2860,
      "favorites_count": 0,
      "comments_count": 85,
      "nsfw": false,
      "sales_count": 0,
      "for_sale_date": null,
      "highest_rating": 99.8,
      "highest_rating_date": "2016-06-21T11:50:58-04:00",
      "license_type": 0,
      "converted": 27,
      "collections_count": 210,
      "crop_version": 3,
      "privacy": false,
      "profile": true,
      "image_url": "https://drscdn.500px.org/photo/159573313/w%3D280_h%3D280/1d7cb457a80dd2a9eafce6bf132abc22?v=3",
      "images":  [
         {
          "size": 3,
          "url": "https://drscdn.500px.org/photo/159573313/w%3D280_h%3D280/1d7cb457a80dd2a9eafce6bf132abc22?v=3",
          "https_url": "https://drscdn.500px.org/photo/159573313/w%3D280_h%3D280/1d7cb457a80dd2a9eafce6bf132abc22?v=3",
          "format": "jpeg"
        },
         {
          "size": 440,
          "url": "https://drscdn.500px.org/photo/159573313/w%3D440_h%3D440/7153ef348b07620fa1d3b66aae375b90?v=3",
          "https_url": "https://drscdn.500px.org/photo/159573313/w%3D440_h%3D440/7153ef348b07620fa1d3b66aae375b90?v=3",
          "format": "jpeg"
        },
         {
          "size": 1080,
          "url": "https://drscdn.500px.org/photo/159573313/m%3D1080_k%3D1_a%3D1/1ccc2fda64a129076b291fab2b9f70b7",
          "https_url": "https://drscdn.500px.org/photo/159573313/m%3D1080_k%3D1_a%3D1/1ccc2fda64a129076b291fab2b9f70b7",
          "format": "jpeg"
        }
      ],
      "url": "/photo/159573313/-by-elena-shumilova",
      "positive_votes_count": 2860,
      "converted_bits": 27,
      "store_download": false,
      "store_print": false,
      "store_license": false,
      "request_to_buy_enabled": true,
      "license_requests_enabled": true,
      "voted": false,
      "liked": false,
      "disliked": false,
      "favorited": false,
      "purchased": false,
      "watermark": false,
      "image_format": "jpeg",
      "user":  {
        "id": 1171535,
        "username": "ElenaShumilova",
        "firstname": "Elena",
        "lastname": "Shumilova",
        "city": "Andreapol",
        "country": "Russia",
        "usertype": 11,
        "fullname": "Elena Shumilova",
        "userpic_url": "https://pacdn.500px.org/1171535/a54cf3d035dad57d6fdbb82b14f625c16f30b5dc/1.jpg?127",
        "userpic_https_url": "https://pacdn.500px.org/1171535/a54cf3d035dad57d6fdbb82b14f625c16f30b5dc/1.jpg?127",
        "cover_url": "https://pacdn.500px.org/1171535/a54cf3d035dad57d6fdbb82b14f625c16f30b5dc/cover_2048.jpg?4",
        "upgrade_status": 0,
        "store_on": true,
        "affection": 562730,
        "avatars":  {
          "default":  {
            "https": "https://pacdn.500px.org/1171535/a54cf3d035dad57d6fdbb82b14f625c16f30b5dc/1.jpg?127"
          },
          "large":  {
            "https": "https://pacdn.500px.org/1171535/a54cf3d035dad57d6fdbb82b14f625c16f30b5dc/2.jpg?127"
          },
          "small":  {
            "https": "https://pacdn.500px.org/1171535/a54cf3d035dad57d6fdbb82b14f625c16f30b5dc/3.jpg?127"
          },
          "tiny":  {
            "https": "https://pacdn.500px.org/1171535/a54cf3d035dad57d6fdbb82b14f625c16f30b5dc/4.jpg?127"
          }
        },
        "followers_count": 0
      },
      "licensing_requested": false,
      "licensing_suggested": false
    },
     {
      "id": 159582813,
      "user_id": 380529,
      "name": "Valley of the Ten Peaks",
      "description": "<a href=\"http://www.zschnepf.com/Other/Videos2\">Instructional Post Processing Videos</a>\n<a href=\"http://www.facebook.com/pages/Zack-Schnepf-Photography/118036808231294\">Facebook</a> | <a href=\"http://www.zschnepf.com/Other/Mailing-List\">Mailing List</a>\nTaken last fall during my trip to the Canadian Rockies with my good friend Sean Bagshaw. We almost didn't visit Moraine Lake, because it's photographed so often, but I'd never been there and I wanted to see it for myself. The sunrise behind us was spectacular, so much so that the reflected light from it illuminated the scene in a beautiful magenta light.\n\nI created this image using the techniques covered in my latest instructional video. In the video I illustrate how I use the powerful tools and techniques available in Lightroom and Photoshop along with the TKActions V4 Panel to achieve an incredible level of control throughout my workflow. You can learn more on my site: <a href=\"http://www.zschnepf.com/Other/Videos2\">www.zschnepf.com</a>\n\nThanks for commenting!\nProud team member of <a href=\"http://www.photocascadia.com/\">Photo Cascadia</a>",
      "camera": null,
      "lens": null,
      "focal_length": null,
      "iso": null,
      "shutter_speed": null,
      "aperture": null,
      "times_viewed": 3986,
      "rating": 99.7,
      "status": 1,
      "created_at": "2016-06-20T23:33:37-04:00",
      "category": 8,
      "location": null,
      "latitude": null,
      "longitude": null,
      "taken_at": null,
      "hi_res_uploaded": 0,
      "for_sale": false,
      "width": 1024,
      "height": 683,
      "votes_count": 1212,
      "favorites_count": 0,
      "comments_count": 41,
      "nsfw": false,
      "sales_count": 0,
      "for_sale_date": null,
      "highest_rating": 99.7,
      "highest_rating_date": "2016-06-21T19:07:25-04:00",
      "license_type": 0,
      "converted": 27,
      "collections_count": 80,
      "crop_version": 3,
      "privacy": false,
      "profile": true,
      "image_url": "https://drscdn.500px.org/photo/159582813/w%3D280_h%3D280/224593306d5343a644a3384e555d1834?v=3",
      "images":  [
         {
          "size": 3,
          "url": "https://drscdn.500px.org/photo/159582813/w%3D280_h%3D280/224593306d5343a644a3384e555d1834?v=3",
          "https_url": "https://drscdn.500px.org/photo/159582813/w%3D280_h%3D280/224593306d5343a644a3384e555d1834?v=3",
          "format": "jpeg"
        },
         {
          "size": 440,
          "url": "https://drscdn.500px.org/photo/159582813/w%3D440_h%3D440/7371125d1e09331e9a2ddb2925e55693?v=3",
          "https_url": "https://drscdn.500px.org/photo/159582813/w%3D440_h%3D440/7371125d1e09331e9a2ddb2925e55693?v=3",
          "format": "jpeg"
        },
         {
          "size": 1080,
          "url": "https://drscdn.500px.org/photo/159582813/m%3D1080_k%3D1_a%3D1/89c7002201e00f8111e77bfde6e38830",
          "https_url": "https://drscdn.500px.org/photo/159582813/m%3D1080_k%3D1_a%3D1/89c7002201e00f8111e77bfde6e38830",
          "format": "jpeg"
        }
      ],
      "url": "/photo/159582813/valley-of-the-ten-peaks-by-zack-schnepf",
      "positive_votes_count": 1212,
      "converted_bits": 27,
      "store_download": false,
      "store_print": false,
      "store_license": false,
      "request_to_buy_enabled": true,
      "license_requests_enabled": true,
      "voted": false,
      "liked": false,
      "disliked": false,
      "favorited": false,
      "purchased": false,
      "watermark": false,
      "image_format": "jpeg",
      "user":  {
        "id": 380529,
        "username": "ZackSchnepf",
        "firstname": "Zack",
        "lastname": "Schnepf",
        "city": "Bend",
        "country": "USA",
        "usertype": 0,
        "fullname": "Zack Schnepf",
        "userpic_url": "https://pacdn.500px.org/380529/d8ebd3df9e710db4075f382e9986bcc00fe8465a/1.jpg?0",
        "userpic_https_url": "https://pacdn.500px.org/380529/d8ebd3df9e710db4075f382e9986bcc00fe8465a/1.jpg?0",
        "cover_url": "https://pacdn.500px.org/380529/d8ebd3df9e710db4075f382e9986bcc00fe8465a/cover_2048.jpg?5",
        "upgrade_status": 0,
        "store_on": true,
        "affection": 124041,
        "avatars":  {
          "default":  {
            "https": "https://pacdn.500px.org/380529/d8ebd3df9e710db4075f382e9986bcc00fe8465a/1.jpg?0"
          },
          "large":  {
            "https": "https://pacdn.500px.org/380529/d8ebd3df9e710db4075f382e9986bcc00fe8465a/2.jpg?0"
          },
          "small":  {
            "https": "https://pacdn.500px.org/380529/d8ebd3df9e710db4075f382e9986bcc00fe8465a/3.jpg?0"
          },
          "tiny":  {
            "https": "https://pacdn.500px.org/380529/d8ebd3df9e710db4075f382e9986bcc00fe8465a/4.jpg?0"
          }
        },
        "followers_count": 0
      },
      "licensing_requested": false,
      "licensing_suggested": false
    },
     {
      "id": 159606941,
      "user_id": 118456,
      "name": "My Zen Garden",
      "description": "WANAKA TREE CHALLENGE\n\nI love it when travel websites refer to the willow tree in Wanaka as ‘That Hidden Gem’ just follow the line of photographers all the way to Fergburger in Queenstown and you’ll find it. At sunrise you can see all the headlamps from space waiting for that first light, it’s that popular. I find most locations get a little boring after a few visits but this tree and location has a zen-like appeal, maybe it’s the hilarious shit that goes on whenever I’m there that makes it so addictive. You have to admit, it’s a pretty sweet composition for anyone into photography and is almost everyones bucket list.\n\nHead over to my Facebook page and post your best Wanaka Tree shot and WIN a $100 OOAK Gift Voucher to spend on a Photography Adventure, Sirui Tripod or NiSi Filters. The person with the best image wins.",
      "camera": null,
      "lens": null,
      "focal_length": null,
      "iso": null,
      "shutter_speed": null,
      "aperture": null,
      "times_viewed": 5772,
      "rating": 99.7,
      "status": 1,
      "created_at": "2016-06-21T04:20:59-04:00",
      "category": 8,
      "location": null,
      "latitude": -44.5276371,
      "longitude": 169.1262926,
      "taken_at": null,
      "hi_res_uploaded": 0,
      "for_sale": false,
      "width": 3661,
      "height": 1529,
      "votes_count": 2075,
      "favorites_count": 0,
      "comments_count": 101,
      "nsfw": false,
      "sales_count": 0,
      "for_sale_date": null,
      "highest_rating": 99.7,
      "highest_rating_date": "2016-06-21T16:18:57-04:00",
      "license_type": 0,
      "converted": 27,
      "collections_count": 144,
      "crop_version": 3,
      "privacy": false,
      "profile": true,
      "image_url": "https://drscdn.500px.org/photo/159606941/w%3D280_h%3D280/6b115b22a3fe6ab0ab91189457ac2f17?v=3",
      "images":  [
         {
          "size": 3,
          "url": "https://drscdn.500px.org/photo/159606941/w%3D280_h%3D280/6b115b22a3fe6ab0ab91189457ac2f17?v=3",
          "https_url": "https://drscdn.500px.org/photo/159606941/w%3D280_h%3D280/6b115b22a3fe6ab0ab91189457ac2f17?v=3",
          "format": "jpeg"
        },
         {
          "size": 440,
          "url": "https://drscdn.500px.org/photo/159606941/w%3D440_h%3D440/84d9c05eccbd275b25386168561dd1eb?v=3",
          "https_url": "https://drscdn.500px.org/photo/159606941/w%3D440_h%3D440/84d9c05eccbd275b25386168561dd1eb?v=3",
          "format": "jpeg"
        },
         {
          "size": 1080,
          "url": "https://drscdn.500px.org/photo/159606941/m%3D1080_k%3D1_a%3D1/f570bc0c13411f30b10006e0f77f5d7a",
          "https_url": "https://drscdn.500px.org/photo/159606941/m%3D1080_k%3D1_a%3D1/f570bc0c13411f30b10006e0f77f5d7a",
          "format": "jpeg"
        }
      ],
      "url": "/photo/159606941/my-zen-garden-by-timothy-poulton",
      "positive_votes_count": 2075,
      "converted_bits": 27,
      "store_download": false,
      "store_print": false,
      "store_license": false,
      "request_to_buy_enabled": false,
      "license_requests_enabled": true,
      "voted": false,
      "liked": false,
      "disliked": false,
      "favorited": false,
      "purchased": false,
      "watermark": false,
      "image_format": "jpeg",
      "user":  {
        "id": 118456,
        "username": "tpoulton001",
        "firstname": "Timothy",
        "lastname": "Poulton",
        "city": "Everywhere at once!",
        "country": "",
        "usertype": 0,
        "fullname": "Timothy Poulton",
        "userpic_url": "https://pacdn.500px.org/118456/d01fb5d601955e87f7ab61c01acd1b12c8e0581a/1.jpg?13",
        "userpic_https_url": "https://pacdn.500px.org/118456/d01fb5d601955e87f7ab61c01acd1b12c8e0581a/1.jpg?13",
        "cover_url": "https://pacdn.500px.org/118456/d01fb5d601955e87f7ab61c01acd1b12c8e0581a/cover_2048.jpg?54",
        "upgrade_status": 2,
        "store_on": true,
        "affection": 424295,
        "avatars":  {
          "default":  {
            "https": "https://pacdn.500px.org/118456/d01fb5d601955e87f7ab61c01acd1b12c8e0581a/1.jpg?13"
          },
          "large":  {
            "https": "https://pacdn.500px.org/118456/d01fb5d601955e87f7ab61c01acd1b12c8e0581a/2.jpg?13"
          },
          "small":  {
            "https": "https://pacdn.500px.org/118456/d01fb5d601955e87f7ab61c01acd1b12c8e0581a/3.jpg?13"
          },
          "tiny":  {
            "https": "https://pacdn.500px.org/118456/d01fb5d601955e87f7ab61c01acd1b12c8e0581a/4.jpg?13"
          }
        },
        "followers_count": 0
      },
      "licensing_requested": false,
      "licensing_suggested": false
    }
  ],
  "filters":  {
    "category": false,
    "exclude": false
  },
  "feature": "popular"
}
